7_Factors_Dates_Times
…
Re-ordering for line plots

by_age <- gss_cat %>% 
  filter(!is.na(age)) %>% 
  count(age, marital) %>% 
  group_by(age) %>% 
  mutate(prop = n / sum(n))

by_age

## # A tibble: 351 x 4
## # Groups:   age [72]
##      age marital           n    prop
##    <int> <fct>         <int>   <dbl>
##  1    18 Never married    89 0.978  
##  2    18 Married           2 0.0220 
##  3    19 Never married   234 0.940  
##  4    19 Divorced          3 0.0120 
##  5    19 Widowed           1 0.00402
##  6    19 Married          11 0.0442 
##  7    20 Never married   227 0.904  
##  8    20 Separated         1 0.00398
##  9    20 Divorced          2 0.00797
## 10    20 Married          21 0.0837 
## # ... with 341 more rows
…
